<svg width="40" height="31" viewBox="0 0 40 31" fill="none" xmlns="http://www.w3.org/2000/svg">
<path fill-rule="evenodd" clip-rule="evenodd" d="M18.1 1.8C18.1 1.2 18.1 0.6 18.1 0C19.9 0 21.7 0 23.5 0C23.5 1.8 23.5 3.6 23.5 5.4C22.9 5.4 22.4 5.5 21.8 5.5C21.8 6 21.8 6.6 21.8 7.2C27.2 7.2 32.6 7.2 38.1 7.2C38.1 7.9 38.1 8.5 38.1 9.1C30.3 9.1 22.4 9.1 14.6 9.1C14.6 8.4 14.6 7.8 14.6 7.2C16.4 7.2 18.1 7.2 19.9 7.2C19.9 6.6 20 6.1 20 5.6C20.6 5.5 21.1 5.5 21.7 5.4C21.7 4.2 21.7 3.1 21.7 1.8C20.4 1.8 19.2 1.8 18.1 1.8Z" fill="#F4350F"/>
<path fill-rule="evenodd" clip-rule="evenodd" d="M5.4 27.2C3.6 27.2 1.9 27.2 0 27.2C0 21.1 0 15.1 0 9.1C1.8 9.1 3.6 9.1 5.4 9.1C5.4 9.7 5.4 10.2 5.4 10.9C4.1 10.9 3 10.9 1.8 10.9C1.8 15.8 1.8 20.5 1.8 25.4C3 25.4 4.1 25.4 5.4 25.4C5.3 26.1 5.3 26.7 5.4 27.2Z" fill="#F4350F"/>
<path fill-rule="evenodd" clip-rule="evenodd" d="M38.1 12.6C38.1 13.2 38.1 13.8 38.1 14.4C35.7 14.4 33.3 14.4 30.8 14.4C30.8 15.6 30.8 16.7 30.8 18C30.1 18 29.5 18 28.9 18C28.9 16.8 28.9 15.7 28.9 14.4C26.4 14.4 24.1 14.4 21.7 14.4C21.7 13.8 21.7 13.2 21.7 12.6C27.2 12.6 32.7 12.6 38.1 12.6Z" fill="#F4350F"/>
<path fill-rule="evenodd" clip-rule="evenodd" d="M23.5 29.1C23.5 29.6 23.5 30.2 23.5 30.8C19.3 30.8 15.1 30.8 10.8 30.8C10.8 30.2 10.8 29.7 10.8 29.1C15 29.1 19.3 29.1 23.5 29.1Z" fill="#F4350F"/>
<path fill-rule="evenodd" clip-rule="evenodd" d="M28.9 18C28.9 19.8 28.9 21.6 28.9 23.5C28.3 23.5 27.8 23.6 27.2 23.6C27.2 22.4 27.2 21.1 27.2 19.8C25.2 19.8 23.5 19.8 21.7 19.8C21.7 19.1 21.7 18.6 21.7 18C24.2 18.1 26.6 18.1 28.9 18Z" fill="#F4350F"/>
<path fill-rule="evenodd" clip-rule="evenodd" d="M27.2 23.7C27.2 24.8 27.2 26 27.2 27.2C26.5 27.2 25.9 27.2 25.3 27.2C25.3 26.6 25.2 26 25.2 25.3C23.3 25.3 21.6 25.3 19.9 25.3C19.9 24.7 19.9 24.2 19.9 23.7C22.4 23.7 24.8 23.7 27.2 23.7Z" fill="#F4350F"/>
<path fill-rule="evenodd" clip-rule="evenodd" d="M8.89999 7.2C8.99999 6.7 8.99999 6.1 8.99999 5.5C10.2 5.5 11.3 5.5 12.5 5.5C12.5 4.9 12.6 4.3 12.6 3.7C13.8 3.7 15 3.7 16.1 3.7C16.1 4.3 16.1 4.8 16.2 5.5C14.9 5.5 13.8 5.5 12.6 5.5C12.6 6.1 12.5 6.6 12.5 7.2C11.3 7.2 10.1 7.2 8.89999 7.2Z" fill="#F4350F"/>
<path fill-rule="evenodd" clip-rule="evenodd" d="M10.8 29.1C8.99999 29.1 7.29999 29.1 5.39999 29.1C5.39999 28.4 5.39999 27.8 5.39999 27.2C7.19999 27.2 8.99999 27.2 10.8 27.2C10.8 27.9 10.8 28.5 10.8 29.1Z" fill="#F4350F"/>
<path fill-rule="evenodd" clip-rule="evenodd" d="M5.39999 9.1C5.39999 8.5 5.39999 7.9 5.39999 7.2C6.59999 7.2 7.79999 7.2 8.89999 7.2C8.89999 7.8 8.99999 8.3 8.99999 9.1C7.69999 9.1 6.49999 9.1 5.39999 9.1Z" fill="#F4350F"/>
<path fill-rule="evenodd" clip-rule="evenodd" d="M38.1 9.1C38.6 9.1 39.2 9 39.8 9C39.8 10.2 39.8 11.3 39.8 12.6C39.2 12.6 38.7 12.6 38.1 12.6C38.1 11.5 38.1 10.3 38.1 9.1Z" fill="#F4350F"/>
<path fill-rule="evenodd" clip-rule="evenodd" d="M16.2 3.7C16.2 3.1 16.3 2.5 16.3 1.8C16.9 1.8 17.5 1.8 18.1 1.8C18.1 2.4 18.1 3 18.1 3.7C17.3 3.7 16.8 3.7 16.2 3.7Z" fill="#F4350F"/>
<path fill-rule="evenodd" clip-rule="evenodd" d="M25.4 27.2C25.4 27.8 25.4 28.3 25.4 29C24.7 29 24.1 29.1 23.5 29.1C23.5 28.5 23.5 27.9 23.5 27.2C24.2 27.2 24.8 27.2 25.4 27.2Z" fill="#F4350F"/>
</svg>
