{
  "hosting": [
    {
      "target": "justedufeu-1",
      "rewrites": [ {
        "source": "**",
        "destination": "/index.html"
      } ],
      "public": "public", 
      "ignore": [
        "firebase.json",
        "**/.*",
        "**/node_modules/**"
      ]
    }, 
    {
      "target": "jdf-preview", 
      "rewrites": [ {
        "source": "**",
        "destination": "/index.html"
      } ],
      "public": "public", 
      "ignore": [
        "firebase.json",
        "**/.*",
        "**/node_modules/**"
      ]
    }
  ]
}
